/* XPM */
static char *dummy[]={
"22 22 90 2",
".e c #777b61",
"#h c #787d62",
"#q c #797d64",
"#r c #7a7d63",
".f c #7a7e64",
".w c #7b7f64",
".d c #7e8269",
".V c #7f846b",
".R c #808569",
".i c #82856d",
"#s c #83876c",
"#. c #858870",
".O c #868a70",
".1 c #878b74",
"#t c #888b72",
".n c #888c73",
".P c #898d72",
".Q c #92957c",
".v c #939781",
".N c #959981",
"#f c #969884",
".4 c #969a86",
"#m c #9ea18d",
".S c #9fa28f",
".g c #9fa290",
"#n c #abac9e",
"#p c #adae9f",
".x c #b1b3a3",
".L c #b5baa0",
".I c #c1c5a6",
".c c #c2c4b9",
"#b c #c4c7b8",
"#e c #c7c9ba",
".G c #ccd1ad",
".s c #ced3ae",
".r c #cfd4b0",
".D c #d0d5b1",
".t c #d0d5b2",
".3 c #d7d7cc",
"#u c #dad8d4",
".7 c #dbdec5",
"#k c #dcdec8",
"#l c #dcdfca",
".o c #deddd8",
".6 c #dfe1cd",
".A c #dfe2ca",
".W c #e1e2d7",
".9 c #e1e2d8",
"#a c #e3e3da",
"#i c #e4e5db",
"#d c #e5e7d8",
"#j c #e5e7da",
".8 c #e5e8d7",
".U c #e7e8dd",
".j c #e7e9dc",
"#c c #e7e9dd",
"#x c #e8e7e6",
".5 c #e8e9df",
".Y c #e8eada",
"#w c #e9e7e6",
"#v c #e9e8e7",
".0 c #e9eadf",
".M c #e9eae0",
"#o c #eae8e7",
"#g c #eae9e8",
"## c #ebe9e8",
".2 c #ebeae9",
".K c #ebece2",
".Z c #ebeddf",
".T c #eceae9",
".J c #ecebea",
".H c #edeee4",
".u c #edefe1",
".F c #eeefe6",
".X c #eef0e3",
".m c #eef0e4",
".E c #f0efee",
".B c #f0f1e6",
".C c #f0f1e8",
".l c #f0f2e7",
".y c #f1f0ef",
".p c #f1f1f0",
".q c #f1f2e8",
".z c #f1f2e9",
".h c #f2f1f0",
".b c #f2f2f1",
".k c #f2f3ea",
".a c #f3f2f1",
".# c #f3f3f2",
"Qt c #f4f3f2",
"QtQtQtQtQtQtQtQtQtQtQtQtQtQtQtQtQtQtQtQtQtQt",
".#.#.#.#.#.#.#.#.#.#.#.#.#.#.#.#.#.#.#.#.#.#",
".a.a.a.a.a.a.a.a.a.a.a.a.a.a.a.a.a.a.a.a.a.a",
".a.a.a.a.a.a.a.a.a.a.a.a.a.a.a.a.a.a.a.a.a.a",
".b.b.b.c.d.e.e.e.f.g.b.b.b.b.b.b.b.b.b.b.b.b",
".h.h.h.i.j.k.k.l.m.n.o.h.h.h.h.h.h.h.h.h.h.h",
".p.p.p.e.q.r.s.t.u.v.e.e.e.e.e.e.w.x.p.p.p.p",
".y.y.y.e.z.s.s.s.A.B.B.B.B.B.B.B.C.f.y.y.y.y",
".y.y.y.e.C.s.s.s.s.D.t.t.t.t.t.t.C.e.y.y.y.y",
".E.E.E.e.F.G.G.G.G.G.G.G.G.G.G.G.F.e.E.E.E.E",
".E.E.E.e.H.I.I.I.I.I.I.I.I.I.I.I.H.e.E.E.E.E",
".J.J.J.e.K.L.L.L.L.L.L.L.L.L.L.L.K.e.J.J.J.J",
".J.J.J.e.M.N.O.P.P.P.P.P.P.P.P.P.Q.R.S.J.J.J",
".T.T.T.e.U.V.W.X.Y.Y.Y.Y.Y.Y.Y.Y.Z.0.1.T.T.T",
".2.2.2.e.3.4.5.6.7.7.7.7.7.7.7.7.8.9#..2.2.2",
"######.e#a#b#c.t.r.r.r.r.r.r.r.r#d#e#f######",
"#g#g#g#h#i.U#j#k#k#k#k#k#k#k#k#l#j#m#n#g#g#g",
"#o#o#o#p#q#r#s#s#s#s#s#s#s#s#s#s#s#t#u#o#o#o",
"#o#o#o#o#o#o#o#o#o#o#o#o#o#o#o#o#o#o#o#o#o#o",
"#v#v#v#v#v#v#v#v#v#v#v#v#v#v#v#v#v#v#v#v#v#v",
"#w#w#w#w#w#w#w#w#w#w#w#w#w#w#w#w#w#w#w#w#w#w",
"#x#x#x#x#x#x#x#x#x#x#x#x#x#x#x#x#x#x#x#x#x#x"};
