/* XPM */
static char *dummy[]={
"20 21 137 2",
"#J c #565854",
".T c #575955",
"#k c #575a55",
"#w c #585a56",
".q c #5a5c58",
".7 c #5b5d59",
".l c #5c5e5a",
".Q c #5e605c",
".H c #60615e",
".d c #60625d",
"#B c #60625f",
".h c #626460",
".9 c #636560",
".K c #636561",
".4 c #656763",
".3 c #666964",
".X c #6a6c68",
"#y c #6b6d68",
".j c #6b6d69",
".n c #6d6f6b",
"#q c #6e706b",
".V c #6e706c",
"#x c #70726e",
".x c #717470",
".G c #737571",
".A c #747772",
"#A c #767874",
".c c #777975",
".6 c #848682",
"#K c #878885",
".m c #878986",
"#e c #898b86",
"## c #8a8c87",
".0 c #8b8d88",
".i c #8c8d89",
"#U c #8c8f89",
"#1 c #8d8e89",
"#9 c #8d8f8a",
".P c #8f908c",
"#u c #8f918c",
".J c #90928d",
"#P c #91938e",
"#E c #92948f",
".e c #939391",
".C c #939590",
".s c #939690",
".N c #949592",
"ab c #949691",
"#f c #959693",
".D c #969793",
"#r c #969893",
"ae c #979793",
"#O c #979893",
"#v c #979a94",
".w c #989b95",
".2 c #999b95",
"#h c #999b96",
"#m c #9a9d97",
"aa c #9ea09b",
"#7 c #9ea09c",
"#p c #9ea19a",
".8 c #9fa29c",
".v c #a1a49e",
".M c #a2a5a0",
".1 c #a5a6a3",
"#t c #a5a8a2",
"a. c #a6a7a3",
"#R c #a6a9a3",
".L c #a7aaa4",
".B c #a8aba4",
"#d c #a8aba5",
".r c #acb0a9",
"#V c #aeafac",
"#3 c #aeb1ab",
"#b c #afb2ab",
"#o c #afb2ac",
"af c #b0b1ae",
"#6 c #b0b3ad",
".U c #b2b1b0",
"#l c #b4b7b0",
".t c #b4b8b1",
"#T c #b5b8b1",
"#5 c #b7bab3",
".I c #b7bbb4",
"#Y c #b9b9b6",
"#S c #b9bcb5",
"#n c #bbbfb8",
"#i c #bcbfb8",
"#X c #bdc0b9",
".5 c #bec2bb",
".W c #bfc3bc",
"#a c #c0c3bc",
"#2 c #c0c4bc",
"#G c #c2c2bf",
"#c c #c4c7c0",
"#4 c #c4c8c0",
".k c #c5c9c1",
"#Q c #c6cac2",
"#s c #c7cbc3",
".g c #c8c8c7",
"#j c #cacec6",
"#8 c #cbcac8",
"a# c #cbcfc7",
".Z c #cccdca",
".S c #ccd0c8",
"#F c #cdd1c9",
"#z c #ced1ca",
"#I c #d0d4cc",
"#C c #d1d1d0",
"#H c #d1d5cd",
".R c #d3d6cf",
".u c #d3d7cf",
"ac c #dedcdb",
".o c #dfdfdd",
"#0 c #e0dfde",
"#. c #e6e6e5",
"ad c #e7e5e4",
".p c #e8e7e6",
"#M c #e9e7e6",
"ag c #e9e8e7",
"#W c #eae8e7",
"#Z c #eae9e8",
"#L c #ebe9e8",
"#N c #ebeae9",
"#D c #eceae9",
"#g c #ecebea",
".O c #ededec",
".F c #eeedec",
".Y c #f0efee",
".z c #f0f0ef",
".E c #f1f0ef",
".y c #f1f1f0",
".b c #f2f1f0",
".f c #f2f2f1",
".a c #f3f2f1",
".# c #f3f3f2",
"Qt c #f4f3f2",
"QtQtQtQtQtQtQtQtQtQtQtQtQtQtQtQtQtQtQtQt",
".#.#.#.#.#.#.#.#.#.#.#.#.#.#.#.#.#.#.#.#",
".a.a.a.a.a.a.a.a.a.a.a.a.a.a.a.a.a.a.a.a",
".a.a.a.a.a.a.a.a.a.a.b.c.d.e.a.a.a.a.a.a",
".f.f.f.f.f.f.f.f.g.h.i.j.k.l.m.n.o.f.f.f",
".b.b.b.b.b.b.b.p.q.r.s.t.u.v.w.w.x.b.b.b",
".y.y.y.y.y.y.y.z.A.B.u.u.u.u.u.C.D.y.y.y",
".E.E.E.E.E.E.F.G.H.I.u.J.K.L.u.M.l.N.E.E",
".E.E.E.E.E.O.P.Q.R.u.S.T.U.V.u.u.W.X.E.E",
".Y.Y.Y.Z.0.1.2.3.4.5.u.6.7.8.u.B.9.6.Y.Y",
".Y.Y#.###a#b#c.R.X#d.u.u.u.u.u#e#f.Y.Y.Y",
"#g#g#g#h#i.u.u#j#k#l#m#n.u#o.L#p#q#g#g#g",
"#g#g#r.C#s.u#t#u#v#w#x#y#z.l#A#B#C#g#g#g",
"#D#D#E.u.u#F.0#G#m#H#I.9#J#K#L#M#D#D#D#D",
"#N#N#O#P#Q.u#R#u#S.u#T#U#V#N#N#N#N#N#N#N",
"#L#L#W#r#X.u.u.u.u.u#t#Y#L#L#L#L#L#L#L#L",
"#Z#Z#0#1#2#3#4.u.I#5#6#7#Z#Z#Z#Z#Z#Z#Z#Z",
"#W#W#W#8#9a.#ma##9aaabac#W#W#W#W#W#W#W#W",
"#W#W#W#W#Wadae##af#W#W#W#W#W#W#W#W#W#W#W",
"agagagagagagagagagagagagagagagagagagagag",
"#M#M#M#M#M#M#M#M#M#M#M#M#M#M#M#M#M#M#M#M"};
