/* XPM */
static char *dummy[]={
"24 23 295 2",
"bT c #0d1114",
"bX c #0e0e0e",
"bA c #0e1215",
".W c #0f0f0f",
"cr c #0f1012",
"ca c #0f1112",
"bh c #0f1417",
"a0 c #0f1519",
"aJ c #13181b",
"cF c #13191d",
"aj c #131a1e",
"a# c #131b20",
"#0 c #151d22",
"av c #171a1d",
"cw c #171b1d",
"cv c #171c20",
"#P c #171e24",
"#y c #171f25",
"bE c #181d21",
".V c #1c2329",
"a4 c #1d272e",
"bl c #1e262d",
"aM c #1e282f",
"cG c #1f272e",
"ay c #1f2930",
".e c #202326",
".U c #202428",
"an c #202931",
"cE c #232324",
"bj c #23292f",
"ac c #232c32",
"#S c #232d33",
".n c #24272a",
"#B c #242d34",
"#j c #252d35",
".2 c #283138",
".o c #293036",
"a2 c #293138",
"aw c #2a3138",
"al c #2a3238",
"aa c #2a3338",
"#2 c #2b3339",
"#Q c #2c3239",
"#f c #2c343a",
"cH c #2c363f",
".0 c #2d3439",
".d c #2d343b",
"cx c #2e2d2b",
"#h c #2e3439",
".I c #2e353a",
".q c #2f353b",
".T c #311c19",
".m c #332b2a",
"cy c #343331",
".S c #371e1a",
"cz c #373634",
".F c #383739",
".R c #3a201c",
".k c #3a2d2b",
".j c #3a2e2b",
".l c #3a2e2c",
".f c #3a302e",
"cA c #3a3937",
".Q c #3b231f",
".h c #3b2f2d",
".i c #3b302d",
".P c #3c221e",
".g c #3c312f",
"cD c #3c3b3a",
".O c #3d231f",
".N c #3e221d",
"cB c #3e3d3c",
".M c #3f241e",
".L c #3f2824",
"bD c #3f4c56",
"cC c #414040",
"be c #41515d",
".X c #424242",
"b0 c #46525c",
"co c #465a6a",
"cf c #49565f",
"cd c #4a5560",
"b9 c #4b606e",
"bx c #4c6273",
"bQ c #4c6274",
"bH c #4d5b65",
"b3 c #4f4c44",
"bo c #505f6a",
"cI c #515151",
"bd c #54626a",
"bK c #57554d",
"a8 c #596166",
"cp c #5c7688",
".K c #5d6572",
"c. c #5e7c91",
"ce c #5f7688",
"aZ c #61798b",
"bR c #648195",
"by c #648298",
"b4 c #66635c",
"aI c #667c8d",
".c c #67686a",
"ai c #678195",
"a. c #688398",
"#Z c #69859a",
"bL c #6b6861",
"a9 c #6b7278",
"cq c #6b818f",
"#O c #6b879d",
"a7 c #6b88a1",
"bZ c #6b89a1",
"bc c #6d767c",
"au c #6d8192",
"#x c #6d899f",
"bG c #6d8da5",
"bn c #6d8ea6",
"bC c #6e6f70",
"bg c #6e8292",
"#w c #6f707a",
"c# c #6f8291",
"cu c #707171",
"a6 c #7091ab",
"bz c #728796",
"bb c #737d83",
"bS c #768694",
"bW c #777676",
"#l c #778699",
"#5 c #778795",
"ae c #778895",
"aH c #788088",
".s c #78818d",
"ba c #78838a",
"ap c #788793",
"#N c #797d84",
"bf c #7995ae",
"#d c #7a7c84",
"aA c #7a8997",
"aU c #7a8fa2",
"aO c #7a97af",
"at c #7b8185",
"b. c #7b858d",
"#D c #7b8d9b",
"aS c #7b90a2",
"aT c #7b91a3",
"#9 c #7c8186",
"#Y c #7c8287",
"b# c #7c878f",
"#U c #7c8c9a",
"aR c #7c91a3",
"ah c #7d8388",
"bk c #7d99af",
"aV c #7f93a4",
"aX c #7f94a4",
"aY c #7f97ab",
"aW c #8094a4",
"aQ c #8094a5",
"aP c #8096a8",
"cc c #818080",
"bw c #828585",
".D c #838f9d",
".4 c #8394a3",
".E c #85a1b8",
"ci c #87847d",
"bY c #89a6bd",
"a3 c #89aac3",
"cn c #8a8e8f",
"aL c #8cacc5",
".p c #8d8d8c",
"ax c #8eadc7",
"am c #8fafc9",
".Y c #919191",
"bP c #929698",
"bF c #94b2ca",
"bm c #95b3cb",
"ab c #95b6cb",
"#e c #96b0c5",
"aN c #96b6cd",
"cj c #97948d",
"a5 c #97b1cc",
"#3 c #98b8cd",
"b8 c #999ea0",
"#R c #9ab6cf",
"az c #9bbbcf",
"ao c #9cbad0",
"#A c #9dbad2",
"b2 c #9e9c97",
"#i c #9fbbd3",
".1 c #9fbed4",
"br c #a2a09b",
"ad c #a2b9d1",
".J c #a2bfd6",
"#4 c #a4bed3",
"#C c #a4c1d4",
"#T c #a5bfd3",
"ch c #a7a39d",
"#k c #a7c2d6",
".3 c #a9bfd7",
"aB c #aaa9ab",
"bJ c #acaaa5",
".r c #adc9e2",
"bs c #aeaca7",
"#m c #b47c77",
"aG c #b7b7b7",
"aE c #b8b9b9",
"bp c #bab8b3",
"aF c #bababa",
"aD c #bababb",
"cg c #bbb8b3",
"aC c #bbbbbb",
"aq c #bdbbbb",
"bv c #bebab3",
".C c #bf8a85",
".5 c #bf9c96",
"#v c #c0675e",
"bN c #c0bdb6",
"#6 c #c3c3c3",
"b5 c #c4c1ba",
"#u c #c5695d",
"bq c #c5c4bf",
"bO c #c8c4be",
"#s c #ca7166",
"bM c #cac7c2",
"#E c #cbbdbc",
"bu c #cbc8c3",
"#t c #cc7468",
"#r c #cc786d",
"b6 c #ccc9c3",
"#q c #d0796d",
"#V c #d0d0d0",
"ck c #d2cfcb",
"#o c #d47b6e",
"#p c #d47d70",
"#c c #d4a29b",
"#n c #d57f71",
"as c #d5d5d5",
"af c #d6d6d6",
"#b c #d7a097",
".B c #d89388",
"#a c #d8a096",
"## c #d8a197",
"b1 c #d8d6d3",
"bV c #d9d8d7",
"ar c #d9d9d9",
"bt c #dad9d5",
"#. c #dba69c",
"bI c #dbdad6",
"ct c #dbdad9",
".A c #dc968a",
".z c #dc968b",
".9 c #dea99f",
".y c #df9c90",
".8 c #dfa79d",
".7 c #e0aa9f",
"#8 c #e0e0e0",
"cm c #e1dfdc",
".x c #e29f93",
".t c #e2a69a",
".6 c #e2b0a4",
"b7 c #e2e1dd",
"cl c #e4e2df",
".w c #e59f93",
"#7 c #e5e5e5",
".v c #e69e90",
"cb c #e6e4e3",
".u c #e8a596",
"cK c #e8e7e6",
"cJ c #e9e7e6",
"cs c #e9e8e7",
"bU c #eae8e7",
"bB c #eae9e8",
"bi c #ebe9e8",
"a1 c #ebeae9",
"#M c #ecd5d3",
"aK c #eceae9",
"ak c #ecebea",
"#L c #edd3d0",
"#J c #eed6d3",
"#I c #eed7d5",
"#K c #efd8d6",
"#H c #efd9d6",
".G c #efeeed",
"#G c #f0d9d7",
"#F c #f0dad7",
"#1 c #f0efee",
"#z c #f1f0ef",
"#g c #f1f1f0",
".Z c #f2f1f0",
".H c #f2f2f1",
"#X c #f2f2f2",
".b c #f3f2f1",
".a c #f3f3f2",
".# c #f4f3f2",
"Qt c #f4f4f3",
"#W c #f4f4f4",
"ag c #ffffff",
"QtQtQtQtQtQtQtQtQtQtQtQtQtQtQtQtQtQtQtQtQtQtQtQt",
".#.#.#.#.#.#.#.#.#.#.#.#.#.#.#.#.#.#.#.#.#.#.#.#",
".a.a.a.a.a.a.a.a.a.a.a.a.a.a.a.a.a.a.a.a.a.a.a.a",
".b.b.b.b.c.d.e.f.g.h.h.i.j.k.k.l.m.n.o.p.b.b.b.b",
".b.b.b.b.q.r.s.t.u.v.w.x.y.z.A.B.C.D.E.F.G.G.b.b",
".H.H.H.H.I.J.K.L.M.N.O.P.Q.R.R.S.T.U.V.W.X.Y.H.H",
".Z.Z.Z.Z.0.1.2.3.4.5.6.7.8.9#.###a#b#c#d#e#f.Z.Z",
"#g#g#g#g#h#i#j#k#l#m#n#o#p#q#r#s#t#u#v#w#x#y#g#g",
"#z#z#z#z.0#A#B#C#D#E#F#G#F#H#I#J#K#L#M#N#O#P#z#z",
"#z#z#z#z#Q#R#S#T#U#V#W#W#W#W#W#W#W#W#X#Y#Z#0#z#z",
"#1#1#1#1#2#3#S#4#5#6#7#7#7#7#7#7#7#7#8#9a.a##1#1",
"#1#1#1#1aaabacadaeafagagagagagagagagagahaiaj#1#1",
"akakakakalamanaoapaqararararararararasatauavakak",
"akakakakawaxayazaAaBaCaCaCaDaEaFaCaCaGaHaIaJakak",
"aKaKaKaKalaLaMaNaOaPaQaRaSaTaUaVaWaXaWaYaZa0aKaK",
"a1a1a1a1a2a3a4a5a6a7a8a9b.b#babbbcbdbebfbgbha1a1",
"bibibibibjbkblbmbnbobpbqbrbsbtbubvbwbxbybzbAbibi",
"bBbBbBbBbCbDbEbFbGbHbIbJbKbLbMbNbObPbQbRbSbTbBbB",
"bUbUbUbUbVbWbXbYbZb0b1b2b3b4b5b6b7b8b9c.c#cabUbU",
"bUbUbUbUbUcbcccdcecfcgchcicjckclcmcncocpcqcrbUbU",
"cscscscscscsctcucvcwcxcyczcAcBcCcDcEcFcGcHcIcscs",
"cJcJcJcJcJcJcJcJcJcJcJcJcJcJcJcJcJcJcJcJcJcJcJcJ",
"cKcKcKcKcKcKcKcKcKcKcKcKcKcKcKcKcKcKcKcKcKcKcKcK"};
